<svg width="57" height="27" viewBox="0 0 57 27" fill="none" xmlns="http://www.w3.org/2000/svg">
<g clip-path="url(#clip0)">
<path d="M53.4948 26.4967H3.98933C2.40329 26.4967 1.11792 25.2113 1.11792 23.6252V3.24726C1.11792 1.66122 2.40329 0.375854 3.98933 0.375854H53.4948C55.0809 0.375854 56.3662 1.66122 56.3662 3.24726V23.6252C56.3662 25.2113 55.0809 26.4967 53.4948 26.4967Z" stroke="white" stroke-miterlimit="10"/>
<path d="M5.46265 3.90875L52.0817 22.9037" stroke="white" stroke-miterlimit="10" stroke-linecap="round" stroke-linejoin="round"/>
</g>
<defs>
<clipPath id="clip0">
<rect width="56" height="26.8725" fill="white" transform="translate(0.742188)"/>
</clipPath>
</defs>
</svg>
