<svg width="95" height="24" viewBox="0 0 95 24" fill="none" xmlns="http://www.w3.org/2000/svg">
<g clip-path="url(#clip0)">
<path d="M34.4632 0C34.468 0.0844905 34.4727 0.173675 34.4727 0.258165C34.4727 8.05476 34.4727 15.8514 34.4727 23.6527C34.4727 23.7371 34.4727 23.8263 34.4727 23.9484C34.3778 23.9484 34.2971 23.9484 34.2116 23.9484C22.8754 23.9484 11.544 23.9484 0.207762 23.9484C0.136555 23.9484 0.0653479 23.9437 -0.00585938 23.939C-0.00111222 15.9593 -0.00111222 7.97966 -0.00111222 0C11.487 0 22.9751 0 34.4632 0ZM30.4186 3.13554C30.3522 3.13084 30.3142 3.12615 30.2715 3.12615C29.023 3.12615 27.7697 3.12615 26.5212 3.12615C25.7285 3.12615 24.9642 3.26227 24.2284 3.5486C22.5953 4.18228 21.3658 5.30413 20.4591 6.76863C19.2343 8.74008 18.7976 10.8852 19.0729 13.1758C19.3293 15.2975 20.1411 17.175 21.6601 18.71C23.0368 20.1041 24.7031 20.8551 26.7016 20.8316C27.8552 20.8175 29.0135 20.8269 30.167 20.8269C30.2477 20.8269 30.3332 20.8269 30.4186 20.8269C30.4186 14.9126 30.4186 9.03579 30.4186 3.13554ZM4.09093 20.8222C4.15739 20.8269 4.20961 20.8316 4.26658 20.8316C5.53881 20.8316 6.8158 20.8504 8.08803 20.8222C8.59598 20.8081 9.11342 20.7377 9.60712 20.6063C11.4253 20.1275 12.7925 19.0151 13.8226 17.4895C15.1471 15.5275 15.6455 13.3495 15.4366 11.0166C15.2325 8.77763 14.3828 6.80618 12.7687 5.20086C11.4585 3.89595 9.88246 3.14023 7.98835 3.12615C6.73984 3.11676 5.4866 3.12146 4.23809 3.12146C4.19062 3.12146 4.1479 3.13084 4.09093 3.13554C4.09093 9.03579 4.09093 14.922 4.09093 20.8222Z" fill="white"/>
<path d="M58.2476 -0.000188895C58.6986 0.060832 59.1544 0.112465 59.6053 0.192262C60.3506 0.328385 61.0627 0.563081 61.6514 1.05594C62.4299 1.7084 62.8049 2.58616 62.8334 3.5578C62.8856 5.32271 62.8856 7.09232 62.8334 8.85723C62.8097 9.75377 62.4964 10.594 61.8128 11.2417C61.2811 11.744 60.6212 12.0022 59.9092 12.1242C58.1717 12.4246 56.4295 12.4575 54.7015 12.0585C53.3771 11.7487 52.4419 10.9883 52.1333 9.62234C52.0431 9.21397 51.9767 8.78683 51.9719 8.36907C51.9577 6.85293 51.9624 5.3321 51.9814 3.81597C51.9861 3.45453 52.0574 3.08371 52.1428 2.72698C52.4134 1.60044 53.1539 0.882268 54.2268 0.469203C54.8819 0.215731 55.5608 0.0983834 56.2586 0.0420564C56.3678 0.0326685 56.477 0.0138929 56.5814 -0.00488281C57.1416 -0.000188895 57.6922 -0.000188895 58.2476 -0.000188895ZM60.1987 6.14884H60.2035C60.2035 5.59496 60.2035 5.03639 60.2035 4.4825C60.2035 4.46842 60.2035 4.44965 60.2035 4.43556C60.1845 4.10699 60.1845 3.77841 60.1418 3.45453C60.0326 2.61902 59.6196 2.16371 58.8031 1.99003C58.0245 1.82575 57.227 1.81166 56.4437 1.90554C55.2142 2.05575 54.7917 2.52045 54.6825 3.74556C54.6493 4.1023 54.6493 4.46373 54.6493 4.82516C54.6588 6.09252 54.6493 7.35987 54.6968 8.62254C54.7347 9.59418 55.1762 10.1574 56.0117 10.3452C56.9802 10.5658 57.9581 10.5611 58.9265 10.3264C59.5199 10.1809 59.9044 9.79132 60.0516 9.20459C60.1323 8.8807 60.1845 8.54274 60.194 8.20947C60.213 7.52416 60.1987 6.83416 60.1987 6.14884Z" fill="white"/>
<path d="M39.6101 12.0445C39.6101 8.09691 39.6101 4.1728 39.6101 0.234596C39.6813 0.229902 39.743 0.21582 39.8047 0.21582C41.9077 0.220514 44.0155 0.21582 46.1185 0.234596C46.7688 0.23929 47.4097 0.34725 48.0268 0.567864C49.2848 1.01379 49.9067 1.96196 50.1251 3.21054C50.1915 3.58606 50.239 3.97096 50.239 4.35116C50.2342 5.7875 50.22 7.22854 50.1725 8.66488C50.1535 9.26101 49.9779 9.83366 49.7026 10.3735C49.2326 11.2747 48.4493 11.7394 47.4761 11.9131C47.0062 11.9976 46.5172 12.0445 46.0378 12.0492C43.9632 12.0633 41.8935 12.0539 39.819 12.0539C39.7525 12.0586 39.6908 12.0492 39.6101 12.0445ZM42.3017 10.1951C42.3587 10.2045 42.3872 10.2092 42.4204 10.2092C43.479 10.2092 44.5424 10.2186 45.601 10.2045C45.8479 10.1998 46.109 10.1529 46.3368 10.059C47.1723 9.7257 47.5189 9.01692 47.5521 8.20018C47.6043 6.77323 47.6138 5.33689 47.5568 3.90994C47.5094 2.64727 46.6739 1.9338 45.4016 1.9291C44.4427 1.9291 43.4885 1.9291 42.5296 1.9291C42.4537 1.9291 42.3777 1.9291 42.3017 1.9291C42.3017 4.70321 42.3017 7.43976 42.3017 10.1951Z" fill="white"/>
<path d="M73.97 12.0588C73.97 8.10179 73.97 4.17767 73.97 0.234785C74.0222 0.230091 74.0697 0.220703 74.1124 0.220703C76.0445 0.225397 77.9718 0.211315 79.9039 0.244173C80.3929 0.253561 80.9008 0.352133 81.3613 0.511726C82.3724 0.86377 82.8899 1.63357 82.9753 2.67562C83.0038 3.04644 82.9943 3.42665 82.9421 3.79747C82.7949 4.86768 82.1778 5.48258 81.0954 5.67503C80.9815 5.69381 80.8628 5.71728 80.7014 5.74544C81.0053 5.78769 81.2663 5.81585 81.5227 5.86279C82.5386 6.05994 83.2079 6.64667 83.4738 7.64648C83.6779 8.42567 83.7206 9.20955 83.4548 9.97935C83.0418 11.1763 82.1683 11.8147 80.9103 11.9555C80.4403 12.0071 79.9656 12.04 79.4909 12.0447C77.7487 12.0541 76.0112 12.0494 74.269 12.0494C74.1741 12.0588 74.0839 12.0588 73.97 12.0588ZM76.6284 10.3314C77.4686 10.3314 78.2994 10.3361 79.1254 10.3314C80.7916 10.3126 81.4705 8.97016 81.1429 7.65117C81.0242 7.1677 80.7157 6.84851 80.2362 6.72178C79.9514 6.64198 79.6476 6.59504 79.3532 6.58096C78.888 6.55749 78.4228 6.57627 77.9481 6.57627C77.9481 6.09279 77.9481 5.65156 77.9481 5.16809C78.1475 5.16809 78.3374 5.18687 78.5225 5.1634C79.0067 5.10707 79.4957 5.05544 79.9704 4.95217C80.3217 4.87707 80.5543 4.61421 80.597 4.26217C80.6445 3.88665 80.6824 3.49236 80.6207 3.12624C80.4831 2.32827 79.9466 1.9199 79.1254 1.91051C78.6032 1.90582 78.081 1.91051 77.5588 1.91051C77.2503 1.91051 76.9464 1.91051 76.6236 1.91051C76.6284 4.71747 76.6284 7.50566 76.6284 10.3314Z" fill="white"/>
<path d="M55.6082 14.9269C56.3202 14.9269 57.0181 14.9222 57.7111 14.9363C57.7823 14.9363 57.8773 15.0348 57.9105 15.1099C58.5039 16.4148 59.0878 17.7197 59.6717 19.0247C59.7572 19.2124 59.8426 19.4002 59.9518 19.6349C60.1085 19.311 60.2461 19.034 60.3838 18.7524C60.9772 17.5414 61.5706 16.335 62.1545 15.124C62.2304 14.9644 62.3206 14.9175 62.4915 14.9175C63.1704 14.9269 63.8492 14.9222 64.547 14.9222C64.547 17.9216 64.547 20.9022 64.547 23.9016C63.9726 23.9016 63.3982 23.9016 62.7669 23.9016C62.7669 21.7988 62.7669 19.7006 62.7669 17.6024C62.7384 17.5977 62.7099 17.5977 62.6862 17.593C62.6149 17.7432 62.5437 17.8981 62.4725 18.0483C61.8222 19.4471 61.1718 20.8412 60.5309 22.2447C60.4597 22.3996 60.3648 22.4231 60.2129 22.4465C59.6717 22.5404 59.4154 22.3104 59.2065 21.8222C58.708 20.6488 58.1336 19.5081 57.5925 18.3534C57.564 18.2924 57.5308 18.2361 57.4595 18.1891C57.4595 20.0855 57.4595 21.9818 57.4595 23.8969C56.8377 23.8969 56.2348 23.8969 55.6129 23.8969C55.6082 20.921 55.6082 17.9404 55.6082 14.9269Z" fill="white"/>
<path d="M94.8861 0.248489C94.8481 0.323592 94.8149 0.394 94.7769 0.459715C93.481 2.80667 92.185 5.14894 90.8938 7.4959C90.8178 7.63672 90.7703 7.81978 90.7703 7.97937C90.7609 9.24673 90.7656 10.5141 90.7656 11.7814C90.7656 11.8659 90.7656 11.9504 90.7656 12.0443C89.8019 12.0443 88.8667 12.0443 87.8936 12.0443C87.8936 11.941 87.8936 11.8519 87.8936 11.758C87.8936 10.5047 87.8983 9.25612 87.8888 8.00284C87.8888 7.81508 87.8366 7.61325 87.7464 7.44896C86.5027 5.11139 85.2494 2.77851 84.0009 0.445633C83.9677 0.384612 83.9392 0.323592 83.8965 0.234407C83.9819 0.225019 84.0484 0.215631 84.1149 0.215631C84.8602 0.215631 85.6007 0.220325 86.346 0.210938C86.5122 0.210938 86.5976 0.267265 86.6736 0.408082C87.5423 2.05095 88.4158 3.68444 89.2892 5.32261C89.3225 5.38833 89.3652 5.45404 89.4127 5.54323C89.9206 4.62791 90.4191 3.74076 90.9128 2.84892C91.3685 2.02748 91.8242 1.20605 92.2894 0.389306C92.3322 0.314204 92.4318 0.220325 92.5031 0.220325C93.2721 0.210937 94.0364 0.215631 94.8054 0.215631C94.8292 0.220325 94.8481 0.234407 94.8861 0.248489Z" fill="white"/>
<path d="M64.8697 0.234785C64.9314 0.230091 64.9837 0.220703 65.0359 0.220703C65.8571 0.220703 66.6784 0.220703 67.5281 0.220703C67.5281 3.51114 67.5281 6.7828 67.5281 10.0873C69.1849 10.0873 70.8179 10.0873 72.4604 10.0873C72.4604 10.7539 72.4604 11.3922 72.4604 12.0447C69.9302 12.0447 67.4095 12.0447 64.865 12.0447C64.8697 8.12057 64.8697 4.19176 64.8697 0.234785Z" fill="white"/>
<path d="M73.4431 19.3716C73.4146 20.1039 73.4383 20.8455 73.3434 21.5731C73.1582 22.9859 72.5411 23.6149 71.1312 23.8731C70.1343 24.0562 69.1279 24.0515 68.1405 23.8215C66.911 23.5351 66.199 22.7606 66.142 21.4933C66.0803 20.0757 66.0803 18.6488 66.142 17.2265C66.199 15.9404 67.006 15.1049 68.3019 14.842C69.2561 14.6495 70.2198 14.6495 71.1739 14.8467C72.5554 15.1283 73.3102 16.0014 73.3814 17.4237C73.4146 18.0714 73.3861 18.7192 73.3861 19.3716C73.4098 19.3716 73.4288 19.3716 73.4431 19.3716ZM71.6581 19.3482C71.6439 19.3482 71.6297 19.3482 71.6154 19.3482C71.6154 18.8318 71.6154 18.3155 71.6154 17.7992C71.6154 17.6724 71.5964 17.5504 71.5869 17.4237C71.5205 16.6632 71.1882 16.2549 70.4619 16.1657C70.0014 16.1094 69.5314 16.1094 69.071 16.1469C68.4206 16.2032 68.0978 16.513 67.9649 17.1514C67.9127 17.4002 67.8937 17.663 67.8889 17.9165C67.8794 18.7849 67.8794 19.6533 67.8889 20.5169C67.8889 20.7892 67.9032 21.0661 67.9364 21.3337C68.0218 22.0753 68.3826 22.4508 69.1327 22.5212C69.5599 22.5635 70.0014 22.5541 70.4286 22.5165C71.0743 22.4555 71.4588 22.1223 71.5347 21.4839C71.6154 20.7845 71.6202 20.0616 71.6581 19.3482Z" fill="white"/>
<path d="M47.7705 23.9249C47.1819 23.9249 46.6265 23.9296 46.0663 23.9202C46.0093 23.9202 45.9286 23.831 45.9049 23.7653C45.6865 23.2114 45.4729 22.6575 45.2688 22.099C45.2213 21.9675 45.1549 21.9206 45.0124 21.9206C44.0013 21.9253 42.9854 21.93 41.9742 21.9206C41.8176 21.9206 41.7606 21.9769 41.7084 22.113C41.509 22.6575 41.2954 23.1926 41.096 23.7371C41.0438 23.8733 40.9773 23.9296 40.8254 23.9296C40.2843 23.9202 39.7383 23.9249 39.1592 23.9249C39.3111 23.5118 39.4488 23.1316 39.5864 22.7514C40.5026 20.2402 41.4188 17.7289 42.3303 15.213C42.3967 15.0346 42.4727 14.9736 42.6673 14.9783C43.2465 14.9924 43.8209 14.9877 44.4001 14.9783C44.5377 14.9783 44.6137 15.0111 44.6611 15.1473C45.6865 18.0246 46.7167 20.9067 47.7421 23.7841C47.7516 23.8169 47.7515 23.8451 47.7705 23.9249ZM44.438 19.9632C44.1152 19.1183 43.8114 18.3203 43.4838 17.4614C43.1326 18.3438 42.8097 19.1559 42.4869 19.9632C43.1515 19.9632 43.7734 19.9632 44.438 19.9632Z" fill="white"/>
<path d="M74.8436 22.3524C74.9623 22.3524 75.0477 22.3524 75.1332 22.3524C76.2962 22.3524 77.4593 22.3524 78.6223 22.3524C79.0591 22.3524 79.192 22.2256 79.2015 21.7985C79.2063 21.5262 79.2063 21.2493 79.2015 20.9771C79.192 20.5875 79.0733 20.4373 78.6841 20.3762C78.1381 20.287 77.5875 20.2213 77.0415 20.1275C76.6238 20.057 76.2013 19.9819 75.793 19.8646C75.2471 19.7003 74.8911 19.3154 74.8626 18.7427C74.8246 18.0199 74.7914 17.2876 74.8531 16.5648C74.9291 15.7058 75.4038 15.2129 76.2867 15.0956C77.4403 14.9454 78.6034 14.9501 79.7617 15.1096C79.8566 15.1237 79.9468 15.1566 80.0323 15.1894C80.5165 15.3631 80.5592 15.4288 80.5592 15.9311C80.5592 16.1001 80.5592 16.2737 80.5592 16.485C80.4642 16.485 80.3835 16.485 80.2981 16.485C79.2205 16.485 78.1476 16.485 77.07 16.485C76.5383 16.485 76.4529 16.5695 76.4481 17.0999C76.4434 17.3486 76.4387 17.6021 76.4529 17.8509C76.4719 18.1982 76.5953 18.3485 76.9466 18.4048C77.7014 18.5221 78.4657 18.6207 79.2205 18.7334C79.4389 18.7662 79.6572 18.8085 79.8709 18.8601C80.4548 19.0056 80.7965 19.3905 80.825 19.9726C80.863 20.7846 80.8772 21.6013 80.825 22.4087C80.7776 23.1738 80.2696 23.6385 79.4768 23.7512C79.1968 23.7887 78.9119 23.8028 78.6271 23.7981C77.7204 23.7934 76.8089 23.7793 75.9022 23.7559C75.7646 23.7512 75.6221 23.7089 75.4892 23.6667C74.9148 23.4977 74.8436 23.3991 74.8436 22.8218C74.8436 22.6716 74.8436 22.526 74.8436 22.3524Z" fill="white"/>
<path d="M50.0066 16.9263C49.1331 16.9263 48.2976 16.9263 47.4526 16.9263C47.4526 16.2645 47.4526 15.6261 47.4526 14.9736C49.8167 14.9736 52.1713 14.9736 54.5354 14.9736C54.5354 15.6214 54.5354 16.2598 54.5354 16.9216C53.7046 16.9216 52.8786 16.9216 52.0289 16.9216C52.0289 19.2686 52.0289 21.5874 52.0289 23.9249C51.35 23.9249 50.6902 23.9249 50.0066 23.9249C50.0066 21.6108 50.0066 19.292 50.0066 16.9263Z" fill="white"/>
<path d="M84.4565 16.8841C84.2998 16.8841 84.1859 16.8841 84.053 16.8841C84.053 16.227 84.053 15.5839 84.053 14.9362C84.409 14.8141 84.5277 14.8564 84.6749 15.1755C84.7793 15.4055 84.8885 15.6402 85.0167 15.9219C85.1448 15.6637 85.254 15.4478 85.3584 15.2366C85.5436 14.8657 85.5436 14.8657 86.0041 14.9127C86.0041 15.5604 86.0041 16.2129 86.0041 16.8841C85.8996 16.8841 85.7857 16.8841 85.6433 16.8841C85.6433 16.4476 85.6433 16.0158 85.6433 15.5792C85.6243 15.5745 85.6006 15.5698 85.5816 15.5651C85.4629 15.828 85.3442 16.0956 85.216 16.3537C85.1733 16.4429 85.0879 16.5086 85.0214 16.5837C84.9549 16.5086 84.8647 16.4476 84.822 16.3631C84.7033 16.1472 84.6036 15.9172 84.4565 15.7013C84.4565 16.0862 84.4565 16.4758 84.4565 16.8841Z" fill="white"/>
<path d="M83.8063 14.9077C83.8063 15.0485 83.8063 15.1706 83.8063 15.3208C83.6259 15.3302 83.4503 15.3349 83.2462 15.3442C83.2462 15.8606 83.2462 16.3675 83.2462 16.8792C83.0895 16.8792 82.9566 16.8792 82.7999 16.8792C82.7999 16.3628 82.7999 15.8606 82.7999 15.3349C82.6053 15.3349 82.4344 15.3349 82.2493 15.3349C82.2493 15.18 82.2493 15.0532 82.2493 14.9077C82.762 14.9077 83.2699 14.9077 83.8063 14.9077Z" fill="white"/>
<path d="M93.8037 12.124C93.1438 12.124 92.6074 11.5936 92.6074 10.9412C92.6074 10.2887 93.1438 9.7583 93.8037 9.7583C94.4636 9.7583 95 10.2887 95 10.9412C95 11.5936 94.4636 12.124 93.8037 12.124ZM93.8037 9.89912C93.2245 9.89912 92.7498 10.3638 92.7498 10.9412C92.7498 11.5138 93.2198 11.9832 93.8037 11.9832C94.3829 11.9832 94.8576 11.5185 94.8576 10.9412C94.8576 10.3685 94.3829 9.89912 93.8037 9.89912Z" fill="white"/>
<path d="M93.9795 11.392L93.8039 11.1432H93.7944H93.6093V11.392H93.4004V10.4907H93.7944C94.0365 10.4907 94.1884 10.6175 94.1884 10.8193C94.1884 10.9554 94.1172 11.054 94.0033 11.1056L94.2074 11.3966H93.9795V11.392ZM93.7849 10.6597H93.614V10.9742H93.7849C93.9131 10.9742 93.9795 10.9132 93.9795 10.8193C93.9748 10.716 93.9131 10.6597 93.7849 10.6597Z" fill="white"/>
</g>
<defs>
<clipPath id="clip0">
<rect width="95" height="24" fill="white"/>
</clipPath>
</defs>
</svg>
