<svg width="37" height="37" viewBox="0 0 37 37" fill="none" xmlns="http://www.w3.org/2000/svg">
<path d="M6.175 30.8C12.975 37.6 24.075 37.6 30.875 30.8C37.675 24 37.675 12.9 30.875 6.1C24.075 -0.7 12.975 -0.7 6.175 6.1C-0.725 12.9 -0.725 23.9 6.175 30.8Z" stroke="white" stroke-miterlimit="10"/>
<path d="M19 10V27" stroke="white" stroke-miterlimit="10"/>
<path d="M14 13V23" stroke="white" stroke-width="0.5" stroke-miterlimit="10"/>
<path d="M10 16V21" stroke="white" stroke-width="0.25" stroke-miterlimit="10"/>
<path d="M24 23V13" stroke="white" stroke-width="0.5" stroke-miterlimit="10"/>
<path d="M28 21V16" stroke="white" stroke-width="0.25" stroke-miterlimit="10"/>
</svg>
