<svg width="36" height="18" viewBox="0 0 36 18" fill="none" xmlns="http://www.w3.org/2000/svg">
<g clip-path="url(#clip0)">
<path fill-rule="evenodd" clip-rule="evenodd" d="M2.08726 0.58667C1.24518 0.58667 0.562779 1.2977 0.562779 2.17511V15.8249C0.562779 16.7023 1.24518 17.4133 2.08726 17.4133H33.9122C34.7543 17.4133 35.4367 16.7023 35.4367 15.8249V2.17511C35.4367 1.2977 34.7543 0.58667 33.9122 0.58667H2.08726ZM-0.0800781 2.17511C-0.0800781 0.927765 0.890139 -0.0831604 2.08726 -0.0831604H33.9122C35.1093 -0.0831604 36.0796 0.927765 36.0796 2.17511V15.8249C36.0796 17.0722 35.1093 18.0832 33.9122 18.0832H2.08726C0.890139 18.0832 -0.0800781 17.0722 -0.0800781 15.8249V2.17511Z" fill="white"/>
<path d="M34.1539 7.51285H31.8345V9.92963H34.1539V7.51285Z" fill="white"/>
<path d="M31.8346 5.0961H29.5151V7.51288H31.8346V5.0961Z" fill="white"/>
<path d="M34.1539 12.3514H31.8345V14.7682H34.1539V12.3514Z" fill="white"/>
<path d="M31.8346 9.92966H29.5151V12.3464H31.8346V9.92966Z" fill="white"/>
<path d="M34.1539 2.67932H31.8345V5.0961H34.1539V2.67932Z" fill="white"/>
</g>
<defs>
<clipPath id="clip0">
<rect width="36" height="18" fill="white"/>
</clipPath>
</defs>
</svg>
