<svg width="161" height="24" viewBox="0 0 161 24" fill="none" xmlns="http://www.w3.org/2000/svg">
<g clip-path="url(#clip0)">
<path fill-rule="evenodd" clip-rule="evenodd" d="M88.6422 10.9C88.6422 10.9 87.0422 9.90003 86.1422 9.60003C86.1422 9.60003 83.1422 8.20003 82.5422 7.60003C82.5422 7.60003 81.3422 6.50003 82.0422 5.20003C82.0422 5.20003 82.3422 4.40003 83.5422 4.40003C83.5422 4.40003 85.1422 4.50003 85.1422 5.80003V7.70003H90.8422V5.00003C90.8422 5.00003 91.2422 0.500034 84.0422 0.300034C84.0422 0.300034 78.3422 -0.0999658 76.7422 3.00003C76.7422 3.00003 76.1422 3.70003 76.1422 6.00003V7.70003C76.1422 7.70003 76.0422 9.70003 77.0422 10.9C77.0422 10.9 77.6422 11.7 79.0422 12.7C79.0422 12.7 81.9422 14.2 83.6422 15.1C83.6422 15.1 85.3422 16.1 85.1422 17.7C85.1422 17.7 85.0422 19.3 83.3422 19.2C83.3422 19.2 81.8422 19.1 81.8422 17.6V15.7H75.7422V18.4C75.7422 18.4 75.5422 23.6 83.4422 23.6C83.4422 23.6 90.9422 23.8 91.3422 18.3V16C91.2422 16 91.5422 12.6 88.6422 10.9Z" fill="white"/>
<path fill-rule="evenodd" clip-rule="evenodd" d="M59.242 0.800049L57.342 12.8H56.842L55.042 0.900049H45.442L45.042 22.7001H50.642L50.742 6.30005H51.142L54.142 22.7001H60.142L63.142 6.30005H63.542L63.642 22.7001H69.342L68.742 0.800049H59.242Z" fill="white"/>
<path fill-rule="evenodd" clip-rule="evenodd" d="M25.5422 0.900024L21.7422 22.7H27.8422L30.0422 5.80002H30.5422L32.8422 22.7H38.9422L35.1422 0.900024H25.5422Z" fill="white"/>
<path fill-rule="evenodd" clip-rule="evenodd" d="M153.642 10.6V13.8H155.242V17.2C155.242 18.9 153.842 18.9 153.842 18.9C152.042 18.9 152.142 17.3 152.142 17.3V5.40003C152.142 4.20003 153.742 4.10003 153.742 4.10003C155.242 4.10003 155.242 5.60003 155.242 5.60003V7.40003H160.942C161.142 3.90003 160.442 3.00003 160.442 3.00003C159.042 -0.199972 153.642 2.77311e-05 153.642 2.77311e-05C145.342 2.77311e-05 146.242 6.40003 146.242 6.40003V17.9C146.442 23.9 154.542 23.3 154.742 23.3C158.342 22.9 159.442 21.7 159.442 21.7C160.442 20.9 160.742 19.9 160.742 19.9C161.042 19.3 161.142 17.4 161.142 17.4V10.6H153.642Z" fill="white"/>
<path fill-rule="evenodd" clip-rule="evenodd" d="M134.542 14.1H134.342L128.442 0.800049H121.442V22.7001H127.142L126.842 9.40005H127.042L133.142 22.7001H139.842V0.800049H134.142L134.542 14.1Z" fill="white"/>
<path fill-rule="evenodd" clip-rule="evenodd" d="M107.642 17.3C107.642 17.3 107.742 19.1 106.042 19.1C106.042 19.1 104.242 19.2 104.242 17.3V0.800049H98.042V17.1C98.042 17.1 97.442 23.3 106.142 23.3C106.142 23.3 113.742 23.4 113.742 17.4V0.800049H107.642V17.3Z" fill="white"/>
<path fill-rule="evenodd" clip-rule="evenodd" d="M13.6422 10.9C13.6422 10.9 12.0422 9.90005 11.1422 9.60005C11.1422 9.60005 8.14216 8.20005 7.54216 7.60005C7.54216 7.60005 6.34216 6.50005 7.04216 5.20005C7.04216 5.20005 7.34216 4.40005 8.54216 4.40005C8.54216 4.40005 10.1422 4.50005 10.1422 5.80005V7.70005H15.8422V5.00005C15.8422 5.00005 16.2422 0.500049 9.04216 0.300049C9.04216 0.300049 8.54216 0.300049 7.74216 0.300049C7.74216 0.300049 3.34216 0.500049 1.84216 2.90005C1.84216 2.90005 1.24216 3.60005 1.24216 5.90005V7.60005C1.24216 7.60005 1.14216 9.60005 2.14216 10.8C2.14216 10.8 2.74216 11.6 4.14216 12.6C4.14216 12.6 6.94216 14.1 8.74216 15C8.74216 15 10.4422 16 10.2422 17.6C10.2422 17.6 10.1422 19.2001 8.44216 19.1C8.44216 19.1 6.94216 19 6.94216 17.5V15.6H0.742164V18.3C0.742164 18.3 0.542163 23.5 8.44216 23.5C8.44216 23.5 15.9422 23.7001 16.3422 18.2001V16C16.2422 16 16.5422 12.6 13.6422 10.9Z" fill="white"/>
</g>
<defs>
<clipPath id="clip0">
<rect width="160.2" height="23.5" fill="white" transform="translate(0.742188)"/>
</clipPath>
</defs>
</svg>
