<svg width="37" height="37" viewBox="0 0 37 37" fill="none" xmlns="http://www.w3.org/2000/svg">
<path d="M18.2422 36C27.9072 36 35.7422 28.165 35.7422 18.5C35.7422 8.83502 27.9072 1 18.2422 1C8.5772 1 0.742188 8.83502 0.742188 18.5C0.742188 28.165 8.5772 36 18.2422 36Z" stroke="white" stroke-miterlimit="10"/>
<path d="M21.692 12.5415H14.8551L11.4053 18.5003L14.8551 24.4591H21.692L25.1418 18.5003L21.692 12.5415Z" stroke="white" stroke-miterlimit="10"/>
<path d="M25.1418 18.4998L15.1687 1.25073" stroke="white" stroke-miterlimit="10"/>
<path d="M21.6921 12.5415H1.80859" stroke="white" stroke-miterlimit="10"/>
<path d="M14.855 12.5415L4.88184 29.7906" stroke="white" stroke-miterlimit="10"/>
<path d="M11.4053 18.4998L21.3157 35.7489" stroke="white" stroke-miterlimit="10"/>
<path d="M14.855 24.459H34.7385" stroke="white" stroke-miterlimit="10"/>
<path d="M21.6921 24.4588L31.6653 7.20972" stroke="white" stroke-miterlimit="10"/>
</svg>
