<svg width="57" height="27" viewBox="0 0 57 27" fill="none" xmlns="http://www.w3.org/2000/svg">
<g clip-path="url(#clip0)">
<path d="M53.4948 26.4967H3.98933C2.40329 26.4967 1.11792 25.2113 1.11792 23.6252V3.24726C1.11792 1.66122 2.40329 0.375854 3.98933 0.375854H53.4948C55.0809 0.375854 56.3662 1.66122 56.3662 3.24726V23.6252C56.3662 25.2113 55.0809 26.4967 53.4948 26.4967Z" stroke="white" stroke-miterlimit="10"/>
<path d="M4.6958 10.4483V4.75813C4.6958 4.32216 5.07916 3.96887 5.5452 3.96887H11.6939" stroke="white" stroke-miterlimit="10" stroke-linecap="round" stroke-linejoin="round"/>
<path d="M11.6939 22.9037H5.5452C5.07164 22.9037 4.6958 22.5504 4.6958 22.1144V16.4242" stroke="white" stroke-miterlimit="10" stroke-linecap="round" stroke-linejoin="round"/>
<path d="M45.79 3.96887H51.9388C52.4123 3.96887 52.7882 4.32216 52.7882 4.75813V10.4483" stroke="white" stroke-miterlimit="10" stroke-linecap="round" stroke-linejoin="round"/>
<path d="M52.7882 16.4242V22.1144C52.7882 22.5504 52.4048 22.9037 51.9388 22.9037H45.79" stroke="white" stroke-miterlimit="10" stroke-linecap="round" stroke-linejoin="round"/>
</g>
<defs>
<clipPath id="clip0">
<rect width="56" height="26.8725" fill="white" transform="translate(0.742188)"/>
</clipPath>
</defs>
</svg>
