<svg width="13" height="16" viewBox="0 0 13 16" fill="none" xmlns="http://www.w3.org/2000/svg">
<path d="M6.5 15.5747L6.5 2.23428" stroke="white" stroke-width="2"/>
<path d="M11.7661 7.57031L6.50016 2.23414L1.2342 7.57031" stroke="white" stroke-width="2"/>
</svg>
